{
      Procedure : { Organization : "Base2art", Product : "Un-Zip", Version : "1.0" },
      ProcedureParameters : { Organization : "Base2art", Product : "Un-Zip-Parameters", Version : "1.0" },
      Parameters : {  
            "OutputPath" : "dist",
            "InputFile" : "tools\\cc-runner.zip",
            "InputBaseDirectory" : "WorkingDirectory",
            "OutputBaseDirectory" : "ArtifactDirectory"
      }
}